<?xml version="1.0" encoding="UTF-8"?>
<svg xmlns="http://www.w3.org/2000/svg" xmlns:xlink="http://www.w3.org/1999/xlink" width="1196.03125pt" height="1552.65625pt" viewBox="0 0 1196.03125 1552.65625" version="1.1">
<defs>
<g>
<symbol overflow="visible" id="glyph0-0">
<path style="stroke:none;" d="M 119.546875 -220.15625 L 27.140625 -220.15625 L 27.140625 71.6875 L 119.546875 71.6875 Z M 48.640625 51.453125 L 48.640625 41.984375 L 69.125 28.15625 L 48.640625 28.15625 L 48.640625 18.6875 L 97.28125 18.6875 L 97.28125 28.15625 L 87.8125 28.15625 L 67.328125 41.984375 L 97.28125 41.984375 L 97.28125 51.453125 Z M 48.640625 11.78125 L 48.640625 -21.25 L 97.28125 -21.25 L 97.28125 11.78125 Z M 48.640625 -38.65625 L 48.640625 -71.6875 L 58.375 -71.6875 L 58.375 -48.390625 L 87.546875 -48.390625 L 87.546875 -61.953125 L 77.828125 -61.953125 L 77.828125 -55.296875 L 68.09375 -55.296875 L 68.09375 -71.6875 L 97.28125 -71.6875 L 97.28125 -38.65625 Z M 48.640625 -78.078125 L 48.640625 -88.0625 L 87.546875 -88.0625 L 87.546875 -107.265625 L 97.28125 -107.265625 L 97.28125 -78.078125 Z M 48.640625 -94.71875 L 48.640625 -104.1875 L 68.09375 -104.1875 L 68.09375 -115.203125 L 48.640625 -115.203125 L 48.640625 -124.671875 L 97.28125 -124.671875 L 97.28125 -115.203125 L 77.828125 -115.203125 L 77.828125 -94.71875 Z M 48.640625 -132.609375 L 48.640625 -163.078125 L 77.828125 -163.078125 L 77.828125 -142.59375 L 97.28125 -142.59375 L 97.28125 -132.609375 Z M 48.640625 -170.5 L 48.640625 -180.21875 L 68.09375 -180.21875 L 68.09375 -190.96875 L 49.15625 -190.96875 L 49.15625 -200.703125 L 97.28125 -200.703125 L 97.28125 -190.96875 L 77.828125 -190.96875 L 77.828125 -180.21875 L 97.28125 -180.21875 L 97.28125 -170.5 Z M 58.375 2.296875 L 87.546875 2.296875 L 87.546875 -11.515625 L 58.375 -11.515625 Z M 58.375 -142.59375 L 68.09375 -142.59375 L 68.09375 -153.09375 L 58.375 -153.09375 Z M 58.375 -142.59375 "/>
</symbol>
<symbol overflow="visible" id="glyph0-1">
<path style="stroke:none;" d="M 19.453125 3.328125 C 25.34375 3.328125 28.671875 -3.578125 31.484375 -8.703125 C 40.703125 -27.390625 51.203125 -46.34375 62.46875 -65.28125 L 142.34375 -68.609375 C 147.96875 -68.859375 155.140625 -70.140625 161.53125 -72.1875 C 164.09375 -49.15625 166.140625 -26.875 168.953125 -6.90625 C 170.5 3.84375 171.78125 8.953125 175.609375 15.875 C 175.609375 16.125 178.171875 19.71875 181.25 19.71875 C 184.828125 19.71875 187.90625 13.5625 187.640625 10.234375 C 184.578125 -19.203125 179.203125 -47.359375 175.109375 -76.796875 C 176.640625 -77.3125 177.65625 -78.078125 178.6875 -78.59375 C 184.0625 -81.921875 187.140625 -88.0625 187.140625 -93.703125 C 187.140625 -99.078125 180.21875 -103.421875 174.84375 -103.421875 C 173.828125 -103.421875 172.796875 -103.171875 171.78125 -102.90625 C 169.46875 -121.859375 167.171875 -141.0625 164.09375 -159.75 C 162.8125 -168.1875 160.25 -176.390625 157.953125 -184.578125 C 155.640625 -194.046875 152.828125 -211.453125 142.34375 -211.453125 C 136.453125 -211.453125 132.609375 -206.34375 128.765625 -199.9375 C 123.640625 -191.75 102.65625 -160.25 92.921875 -145.921875 C 85.25 -134.65625 77.828125 -123.140625 70.65625 -111.609375 C 61.953125 -98.046875 52.984375 -84.484375 44.546875 -70.65625 C 36.09375 -56.578125 27.140625 -43.015625 19.453125 -28.421875 C 15.875 -21.765625 11.78125 -15.359375 11.78125 -7.9375 C 11.78125 -2.8125 14.34375 3.328125 19.453125 3.328125 Z M 77.828125 -90.875 C 81.65625 -96.765625 85.25 -102.65625 88.828125 -108.546875 C 98.296875 -123.90625 109.5625 -137.984375 120.3125 -152.828125 C 127.484375 -162.5625 134.65625 -172.796875 142.078125 -182.53125 C 146.9375 -161.53125 152.3125 -140.28125 155.640625 -119.296875 C 156.921875 -111.609375 157.953125 -103.6875 158.71875 -96 C 155.640625 -94.46875 152.0625 -93.1875 147.96875 -93.1875 C 128.765625 -93.1875 98.5625 -91.640625 77.828125 -90.875 Z M 77.828125 -90.875 "/>
</symbol>
<symbol overflow="visible" id="glyph0-2">
<path style="stroke:none;" d="M 41.734375 -4.359375 C 44.28125 -4.359375 47.109375 -7.171875 60.421875 -9.46875 C 76.546875 -12.28125 117.765625 -16.640625 146.6875 -28.15625 L 176.125 -39.9375 C 194.8125 -47.109375 200.453125 -62.71875 200.453125 -75.015625 C 200.453125 -96.765625 180.984375 -113.40625 163.328125 -126.96875 C 156.15625 -132.609375 147.71875 -137.21875 139.78125 -142.078125 C 149.5 -150.53125 158.46875 -161.28125 158.46875 -173.5625 C 158.46875 -199.9375 130.5625 -206.59375 96.25 -206.59375 C 75.015625 -206.59375 54.53125 -201.984375 33.796875 -193.796875 C 31.75 -196.09375 28.921875 -198.65625 25.34375 -198.65625 C 23.046875 -198.65625 20.484375 -195.84375 20.484375 -191.75 L 20.484375 -149.25 C 20.484375 -132.359375 13.0625 -44.28125 13.0625 -16.890625 C 13.0625 -1.03125 15.875 9.46875 20.484375 9.46875 C 25.59375 9.46875 28.15625 3.84375 28.15625 -6.40625 C 28.15625 -44.796875 34.5625 -83.453125 35.84375 -121.859375 L 37.625 -168.1875 C 51.203125 -178.6875 67.84375 -182.015625 84.21875 -182.015625 C 100.859375 -182.015625 117.25 -180.984375 133.890625 -178.9375 C 136.703125 -178.4375 141.0625 -176.125 141.0625 -173.3125 C 141.0625 -166.40625 120.828125 -153.34375 107.78125 -147.453125 C 101.625 -144.640625 94.46875 -143.359375 88.3125 -141.0625 C 82.9375 -139.015625 77.828125 -135.9375 72.953125 -132.09375 C 72.953125 -125.1875 73.984375 -111.109375 82.171875 -111.109375 C 93.1875 -116.484375 103.6875 -121.09375 117.25 -121.09375 C 139.265625 -121.09375 184.828125 -95.484375 184.828125 -79.609375 C 184.828125 -64.765625 146.4375 -50.4375 123.390625 -45.5625 C 96.765625 -39.9375 69.125 -35.078125 41.984375 -35.078125 C 37.890625 -35.078125 33.53125 -30.71875 33.53125 -26.375 C 33.53125 -18.6875 38.140625 -4.359375 41.734375 -4.359375 Z M 41.734375 -4.359375 "/>
</symbol>
<symbol overflow="visible" id="glyph0-3">
<path style="stroke:none;" d="M 96.25 0.25 C 115.71875 0.25 137.46875 -3.578125 154.109375 -9.984375 C 158.46875 -11.78125 163.84375 -16.125 163.84375 -20.984375 C 163.84375 -26.375 154.875 -33.53125 147.71875 -33.53125 C 142.34375 -33.53125 138.234375 -28.921875 132.859375 -27.90625 C 120.828125 -25.59375 108.03125 -24.578125 95.75 -24.578125 C 43.265625 -24.578125 28.15625 -38.90625 28.15625 -58.625 C 28.15625 -79.359375 35.578125 -103.171875 49.921875 -118.015625 C 58.625 -126.96875 66.296875 -134.40625 75.015625 -143.359375 C 83.453125 -152.0625 95.75 -161.796875 107.78125 -161.796875 C 116.21875 -161.796875 124.15625 -153.09375 130.8125 -153.09375 C 136.1875 -153.09375 137.984375 -159.484375 137.984375 -164.359375 C 137.984375 -178.9375 123.390625 -185.59375 110.34375 -185.59375 C 80.640625 -185.59375 47.109375 -151.046875 27.390625 -120.578125 C 17.15625 -104.703125 12.796875 -83.71875 12.796875 -59.390625 C 12.796875 -14.078125 57.59375 0.25 96.25 0.25 Z M 96.25 0.25 "/>
</symbol>
<symbol overflow="visible" id="glyph0-4">
<path style="stroke:none;" d="M 18.9375 4.609375 C 24.3125 4.609375 26.375 -2.5625 27.640625 -10.234375 C 107.015625 -20.984375 192 -55.8125 192 -130.8125 C 192 -182.265625 152.828125 -205.828125 112.890625 -205.0625 C 96.515625 -204.796875 65.28125 -192.765625 40.1875 -183.296875 C 39.6875 -192.25 38.140625 -202.234375 33.03125 -202.234375 C 28.421875 -202.234375 26.875 -189.4375 26.625 -177.65625 C 21.765625 -174.84375 17.65625 -171.265625 17.65625 -166.65625 C 17.65625 -159.75 21.25 -151.8125 26.109375 -148.984375 C 23.8125 -101.125 12.796875 -38.65625 12.796875 -19.453125 C 12.796875 -11.015625 13.0625 4.609375 18.9375 4.609375 Z M 31.484375 -39.171875 C 35.84375 -68.609375 40.453125 -101.625 40.453125 -129.53125 L 40.453125 -153.59375 C 69.125 -167.421875 102.40625 -179.203125 118.015625 -179.203125 C 148.734375 -179.203125 175.609375 -155.390625 175.609375 -132.359375 C 175.609375 -92.671875 117.5 -42.75 31.484375 -39.171875 Z M 31.484375 -39.171875 "/>
</symbol>
<symbol overflow="visible" id="glyph0-5">
<path style="stroke:none;" d="M 25.59375 2.5625 C 38.40625 2.5625 136.1875 -12.796875 189.4375 -20.734375 C 195.078125 -21.5 200.1875 -28.15625 200.1875 -33.796875 C 200.1875 -40.703125 194.046875 -47.875 187.140625 -47.875 C 179.96875 -47.875 93.703125 -37.890625 36.359375 -27.140625 C 36.859375 -43.265625 37.375 -59.640625 37.890625 -76.03125 L 151.046875 -96.765625 C 161.03125 -98.8125 165.625 -102.40625 165.625 -107.515625 C 165.625 -118.265625 158.46875 -125.953125 147.71875 -125.953125 C 120.828125 -125.953125 76.28125 -114.6875 60.421875 -111.109375 C 51.96875 -109.3125 44.796875 -106.5 37.375 -103.171875 L 39.6875 -158.46875 C 83.453125 -168.1875 126.71875 -178.171875 167.9375 -187.390625 C 175.875 -189.1875 179.203125 -196.859375 179.203125 -202.75 C 179.203125 -209.65625 171.015625 -215.046875 164.09375 -215.046875 C 147.96875 -215.046875 76.28125 -198.140625 32.25 -185.34375 C 27.640625 -185.34375 22.53125 -180.484375 22.53125 -174.84375 C 21.765625 -124.671875 21.25 -74.234375 20.484375 -24.0625 L 14.078125 -22.53125 L 8.453125 -15.359375 C 8.453125 -5.125 16.640625 2.5625 25.59375 2.5625 Z M 25.59375 2.5625 "/>
</symbol>
<symbol overflow="visible" id="glyph0-6">
<path style="stroke:none;" d="M 17.15625 3.578125 C 26.625 3.578125 27.140625 -26.109375 28.421875 -41.734375 L 31.75 -83.453125 C 77.828125 -98.5625 140.28125 -107.265625 163.328125 -107.265625 C 168.703125 -107.265625 174.84375 -113.921875 174.84375 -119.546875 C 174.84375 -128 171.265625 -136.953125 164.359375 -136.953125 C 122.875 -136.953125 76.03125 -128.765625 34.5625 -115.71875 C 37.125 -131.578125 40.703125 -146.9375 42.5 -160.765625 C 74.5 -170.5 112.390625 -179.71875 127.234375 -179.71875 C 133.125 -179.71875 136.703125 -189.4375 136.703125 -195.578125 C 136.703125 -205.0625 129.28125 -212.734375 117.765625 -210.6875 C 96.515625 -206.84375 70.40625 -199.6875 42.5 -189.953125 C 41.46875 -203.78125 38.40625 -214.265625 33.28125 -214.265625 C 29.1875 -214.265625 25.859375 -209.40625 25.859375 -200.1875 C 25.859375 -195.078125 25.59375 -189.4375 25.34375 -183.8125 C 24.3125 -183.546875 23.546875 -183.046875 22.53125 -182.78125 C 17.65625 -180.984375 15.359375 -174.84375 15.359375 -168.453125 C 15.359375 -162.046875 17.65625 -155.90625 22.265625 -154.875 C 17.65625 -117.25 9.734375 -75.78125 9.734375 -43.265625 L 9.734375 -9.46875 C 9.734375 0 12.03125 3.578125 17.15625 3.578125 Z M 17.15625 3.578125 "/>
</symbol>
<symbol overflow="visible" id="glyph0-7">
<path style="stroke:none;" d="M 99.078125 -73.734375 C 123.390625 -76.796875 147.96875 -79.875 172.546875 -83.203125 C 139.78125 -57.859375 86.265625 -30.203125 54.015625 -30.203125 C 37.125 -30.203125 25.859375 -39.9375 25.859375 -54.53125 C 25.859375 -118.015625 81.65625 -180.484375 130.046875 -180.484375 C 144.890625 -180.484375 152.828125 -169.46875 162.8125 -169.46875 C 166.140625 -169.46875 171.015625 -172.28125 171.015625 -175.609375 C 171.015625 -192.25 153.09375 -205.5625 132.09375 -205.5625 C 52.734375 -205.5625 7.6875 -115.96875 7.6875 -64.765625 C 7.6875 -30.71875 25.34375 -3.078125 46.84375 -3.078125 C 93.1875 -3.078125 128.515625 -23.046875 166.40625 -47.609375 C 164.859375 -39.6875 163.328125 -31.75 163.328125 -23.546875 C 163.328125 -14.34375 164.09375 2.5625 173.3125 2.5625 C 176.890625 2.5625 179.71875 -2.5625 180.484375 -6.140625 C 184.578125 -27.140625 192.765625 -54.78125 192.765625 -69.375 C 192.765625 -75.015625 189.953125 -80.390625 185.859375 -84.734375 C 221.4375 -89.34375 257.28125 -93.703125 292.09375 -98.296875 C 295.421875 -98.5625 296.953125 -101.890625 296.953125 -103.9375 C 296.953125 -112.890625 292.359375 -127.234375 283.140625 -127.234375 C 269.5625 -127.234375 154.875 -110.34375 95.75 -102.65625 C 89.34375 -101.890625 88.0625 -98.046875 88.0625 -94.46875 C 88.0625 -87.8125 91.140625 -72.703125 99.078125 -73.734375 Z M 99.078125 -73.734375 "/>
</symbol>
<symbol overflow="visible" id="glyph0-8">
<path style="stroke:none;" d="M 21.25 3.078125 C 25.859375 3.078125 27.90625 -4.09375 28.921875 -8.703125 C 34.046875 -34.8125 37.890625 -74.234375 38.40625 -108.546875 C 42.234375 -108.546875 46.34375 -108.796875 50.4375 -108.796875 C 79.875 -108.796875 111.609375 -101.125 141.0625 -101.125 C 146.6875 -101.125 151.046875 -102.40625 154.375 -104.703125 L 154.375 -26.875 C 154.375 -21.5 156.15625 -12.796875 161.53125 -12.796875 C 168.1875 -12.796875 171.515625 -23.546875 171.515625 -30.203125 L 171.515625 -138.234375 C 171.515625 -161.03125 167.171875 -184.0625 160 -205.5625 C 158.46875 -210.171875 156.421875 -216.578125 151.8125 -216.578125 C 147.71875 -216.578125 144.390625 -211.71875 144.390625 -205.0625 C 144.390625 -191.234375 154.375 -175.875 154.375 -149.25 L 154.375 -132.09375 C 145.65625 -129.796875 136.953125 -128 128 -128 C 97.53125 -128 67.078125 -133.890625 39.171875 -133.890625 L 37.890625 -133.890625 C 36.359375 -163.078125 32 -196.359375 29.1875 -201.734375 C 24.828125 -209.65625 21.25 -210.9375 19.453125 -210.9375 C 16.125 -210.9375 13.828125 -208.890625 13.828125 -205.828125 C 13.828125 -187.90625 18.6875 -158.46875 20.734375 -130.8125 C 12.03125 -128 5.125 -122.875 5.125 -115.71875 C 5.125 -112.390625 6.140625 -108.796875 7.6875 -105.46875 L 21.765625 -107.015625 C 21.765625 -75.515625 14.84375 -27.640625 14.84375 -13.3125 C 14.84375 -7.6875 15.609375 3.078125 21.25 3.078125 Z M 21.25 3.078125 "/>
</symbol>
<symbol overflow="visible" id="glyph0-9">
<path style="stroke:none;" d="M 15.609375 1.796875 C 22.015625 1.796875 105.984375 -27.640625 144.890625 -26.625 L 164.859375 -26.109375 C 167.421875 -26.109375 168.953125 -28.15625 168.953125 -31.234375 C 168.953125 -38.140625 164.609375 -44.546875 160.515625 -49.921875 C 158.71875 -52.484375 155.90625 -54.015625 153.34375 -54.015625 C 140.28125 -54.015625 120.578125 -51.203125 99.84375 -47.359375 C 101.625 -66.8125 102.65625 -86.265625 102.65625 -105.734375 C 102.65625 -127.484375 100.609375 -149.5 98.8125 -171.515625 C 117.25 -173.3125 135.421875 -175.875 154.109375 -179.203125 C 157.703125 -179.96875 160.765625 -184.0625 160.765625 -187.640625 C 160.765625 -195.328125 152.828125 -204.796875 145.15625 -204.796875 C 129.03125 -204.796875 59.90625 -195.078125 34.5625 -195.078125 C 31.484375 -195.078125 29.4375 -190.203125 29.4375 -187.140625 C 29.4375 -183.546875 32.765625 -168.703125 40.1875 -168.703125 C 54.265625 -168.703125 68.09375 -169.21875 81.65625 -169.984375 C 83.453125 -147.203125 84.984375 -124.15625 84.984375 -101.125 C 84.984375 -82.171875 84.734375 -62.96875 83.71875 -44.03125 C 54.78125 -37.890625 26.375 -29.953125 11.78125 -24.0625 C 8.953125 -22.78125 5.125 -18.6875 5.125 -15.875 C 5.125 -10.5 8.953125 1.796875 15.609375 1.796875 Z M 15.609375 1.796875 "/>
</symbol>
<symbol overflow="visible" id="glyph0-10">
<path style="stroke:none;" d="M 175.875 3.078125 C 180.484375 3.078125 185.09375 0 187.90625 -4.09375 C 192.25 -10.5 195.328125 -19.71875 195.328125 -33.03125 C 195.328125 -76.796875 187.140625 -124.421875 177.921875 -166.65625 C 208.890625 -171.015625 235.265625 -174.84375 249.34375 -174.84375 C 256.765625 -174.84375 261.125 -186.625 261.125 -194.046875 C 261.125 -201.734375 253.4375 -208.890625 246.015625 -208.890625 C 214.015625 -208.890625 136.1875 -184.3125 23.296875 -184.3125 C 23.296875 -164.859375 33.53125 -154.375 49.921875 -154.375 C 83.203125 -154.375 123.640625 -159.234375 160 -164.09375 C 167.6875 -125.703125 178.6875 -85.25 178.6875 -51.71875 C 178.6875 -43.015625 178.4375 -34.5625 176.390625 -26.109375 C 126.71875 -39.421875 75.015625 -46.34375 15.609375 -46.34375 C 9.21875 -46.34375 5.125 -41.984375 5.125 -35.578125 C 5.125 -27.90625 10.234375 -14.59375 17.921875 -14.59375 C 136.703125 -14.59375 163.578125 3.078125 175.875 3.078125 Z M 175.875 3.078125 "/>
</symbol>
<symbol overflow="visible" id="glyph0-11">
<path style="stroke:none;" d="M 12.796875 20.984375 C 18.171875 20.984375 26.625 16.125 26.625 9.21875 L 29.1875 -30.96875 C 34.296875 -45.828125 40.453125 -59.640625 47.609375 -72.453125 C 72.453125 -49.15625 97.28125 -25.859375 121.859375 -1.28125 C 124.15625 1.03125 128 3.84375 130.296875 3.84375 C 134.65625 3.84375 139.265625 -1.53125 139.265625 -5.625 C 139.265625 -17.15625 110.078125 -44.03125 92.671875 -60.15625 C 81.65625 -70.40625 70.65625 -80.390625 59.140625 -90.375 C 77.828125 -116.484375 102.90625 -137.21875 136.703125 -152.3125 C 142.34375 -154.875 151.046875 -158.96875 151.046875 -165.125 C 151.046875 -172.03125 142.84375 -179.96875 134.65625 -179.96875 C 119.8125 -179.96875 66.046875 -147.453125 38.40625 -108.28125 L 36.09375 -110.59375 L 37.375 -171.015625 C 37.890625 -191.234375 31.484375 -208.890625 24.0625 -208.890625 C 20.484375 -208.890625 16.640625 -205.5625 16.640625 -199.171875 L 16.640625 -106.5 C 16.640625 -69.890625 5.125 -33.53125 5.125 2.8125 C 5.125 9.46875 8.1875 20.984375 12.796875 20.984375 Z M 12.796875 20.984375 "/>
</symbol>
<symbol overflow="visible" id="glyph0-12">
<path style="stroke:none;" d="M 5.125 -16.640625 C 5.125 -5.125 11.015625 2.5625 19.71875 2.5625 C 59.640625 2.5625 128.765625 -5.890625 178.4375 -5.890625 C 183.046875 -5.890625 186.875 -12.03125 186.875 -16.640625 C 186.875 -22.015625 179.203125 -31.234375 172.28125 -31.234375 C 128 -31.234375 71.421875 -28.15625 34.046875 -27.390625 C 48.390625 -72.453125 61.953125 -120.828125 61.953125 -166.40625 C 61.953125 -191.75 56.828125 -206.84375 49.15625 -206.84375 C 46.078125 -206.84375 43.78125 -203.78125 43.78125 -200.953125 C 43.78125 -187.390625 44.28125 -174.078125 44.28125 -160.515625 C 44.28125 -113.921875 16.125 -39.9375 9.46875 -29.4375 C 6.40625 -24.578125 5.125 -19.71875 5.125 -16.640625 Z M 5.125 -16.640625 "/>
</symbol>
<symbol overflow="visible" id="glyph0-13">
<path style="stroke:none;" d="M 147.453125 -194.8125 C 140.03125 -183.046875 107.78125 -143.109375 95.234375 -130.296875 C 93.703125 -128.515625 91.640625 -126.71875 89.34375 -126.71875 C 87.046875 -126.71875 83.96875 -128.515625 82.9375 -129.796875 C 63.484375 -150.015625 37.890625 -183.046875 24.828125 -203.78125 C 20.21875 -211.453125 15.109375 -217.09375 11.515625 -217.09375 C 8.703125 -217.09375 5.625 -214.015625 5.625 -210.171875 C 5.625 -204.796875 9.734375 -195.328125 13.828125 -188.421875 L 14.078125 -156.921875 C 14.34375 -108.796875 5.125 -32 5.125 -12.796875 C 5.125 -5.890625 8.453125 4.09375 15.359375 4.09375 C 20.984375 4.09375 25.34375 -2.046875 25.34375 -7.6875 C 25.34375 -21.765625 32.515625 -100.09375 36.609375 -153.59375 C 56.3125 -129.28125 78.34375 -96.515625 91.640625 -96.515625 C 103.171875 -96.515625 112.640625 -105.734375 123.90625 -119.046875 C 132.09375 -128.765625 141.828125 -144.390625 150.78125 -160.515625 C 146.6875 -102.65625 141.5625 -27.640625 141.5625 1.796875 C 141.5625 7.6875 147.71875 14.34375 153.59375 14.34375 C 159.234375 14.34375 162.5625 9.21875 162.5625 4.609375 C 162.5625 -35.328125 174.078125 -130.5625 174.078125 -173.828125 C 174.078125 -183.046875 173.3125 -197.625 167.6875 -203.265625 C 164.859375 -206.078125 161.53125 -208.125 157.953125 -208.125 C 153.59375 -208.125 150.53125 -199.6875 147.453125 -194.8125 Z M 147.453125 -194.8125 "/>
</symbol>
<symbol overflow="visible" id="glyph0-14">
<path style="stroke:none;" d="M 13.3125 4.09375 C 18.6875 4.09375 22.015625 -2.046875 22.015625 -11.265625 C 22.015625 -34.5625 32.765625 -83.96875 34.046875 -153.59375 C 50.4375 -133.375 67.328125 -113.15625 82.4375 -91.640625 C 101.625 -64 128.765625 -6.40625 136.703125 -6.40625 C 142.34375 -6.40625 145.921875 -7.9375 148.734375 -10.234375 C 150.015625 -8.453125 151.546875 -7.171875 153.59375 -7.171875 C 168.1875 -7.171875 168.953125 -83.71875 168.953125 -110.84375 C 168.953125 -141.3125 162.296875 -161.03125 156.15625 -177.65625 C 153.34375 -184.828125 150.53125 -197.125 142.84375 -197.125 C 139.015625 -197.125 136.703125 -192.515625 136.703125 -188.921875 C 136.703125 -183.8125 151.296875 -142.34375 151.296875 -111.109375 C 151.296875 -82.171875 148.21875 -52.984375 144.390625 -24.3125 C 125.1875 -56.828125 104.453125 -89.34375 83.71875 -117.765625 C 66.046875 -141.828125 49.40625 -161.796875 32.765625 -180.984375 C 30.71875 -192.25 26.625 -203.265625 19.203125 -203.265625 C 15.359375 -203.265625 13.0625 -200.453125 13.0625 -197.125 C 13.0625 -177.15625 16.890625 -154.625 16.890625 -126.71875 C 16.890625 -89.59375 5.125 -33.28125 5.125 -11.265625 C 5.125 -5.125 6.65625 4.09375 13.3125 4.09375 Z M 13.3125 4.09375 "/>
</symbol>
<symbol overflow="visible" id="glyph0-15">
<path style="stroke:none;" d="M 56.578125 -38.90625 C 105.734375 -38.90625 145.921875 -88.828125 145.921875 -150.78125 C 145.921875 -182.265625 128.515625 -207.875 107.265625 -207.875 C 95.75 -207.875 84.734375 -202.75 73.984375 -196.09375 C 37.375 -196.09375 7.6875 -141.0625 7.6875 -109.5625 C 7.6875 -66.8125 27.140625 -38.90625 56.578125 -38.90625 Z M 23.046875 -98.046875 C 23.046875 -133.625 53.25 -169.21875 83.71875 -169.21875 C 92.15625 -169.21875 98.296875 -175.359375 105.21875 -183.296875 C 119.546875 -183.296875 129.28125 -168.1875 129.28125 -145.40625 C 129.28125 -116.734375 97.796875 -65.53125 56.578125 -65.53125 C 40.953125 -65.53125 23.046875 -82.4375 23.046875 -98.046875 Z M 23.046875 -98.046875 "/>
</symbol>
<symbol overflow="visible" id="glyph0-16">
<path style="stroke:none;" d="M 14.84375 12.796875 C 20.734375 12.796875 24.578125 8.453125 24.578125 2.046875 C 24.578125 -23.8125 31.484375 -59.640625 31.484375 -90.625 C 31.484375 -112.640625 29.703125 -141.5625 26.875 -165.375 C 47.109375 -173.5625 66.296875 -178.9375 84.734375 -178.9375 C 105.21875 -178.9375 130.8125 -175.109375 142.84375 -166.140625 C 142.84375 -141.5625 120.578125 -136.703125 104.703125 -136.703125 C 85.5 -136.703125 62.96875 -137.46875 42.234375 -129.03125 C 42.234375 -117.5 45.0625 -103.171875 56.578125 -103.171875 L 93.4375 -103.171875 C 122.375 -103.171875 161.28125 -108.28125 161.28125 -158.96875 C 161.28125 -187.640625 134.65625 -206.84375 94.96875 -206.84375 C 70.40625 -206.84375 44.796875 -204.03125 22.53125 -195.578125 C 21.765625 -199.9375 20.984375 -203.265625 20.21875 -205.828125 C 17.921875 -212.21875 15.359375 -215.546875 12.546875 -215.546875 C 9.46875 -215.546875 7.6875 -212.21875 7.6875 -205.828125 C 7.6875 -169.984375 12.28125 -129.28125 12.28125 -91.140625 C 12.28125 -59.90625 5.125 -24.828125 5.125 2.046875 C 5.125 8.703125 8.953125 12.796875 14.84375 12.796875 Z M 14.84375 12.796875 "/>
</symbol>
<symbol overflow="visible" id="glyph0-17">
<path style="stroke:none;" d="M 88.3125 -22.53125 C 106.5 -22.53125 124.421875 -28.15625 139.515625 -37.125 C 162.5625 -15.359375 185.859375 3.078125 192.25 3.078125 C 196.859375 3.078125 202.234375 -2.046875 202.234375 -6.140625 C 202.234375 -9.734375 179.96875 -28.15625 156.421875 -50.171875 C 170.234375 -63.234375 178.9375 -80.125 178.9375 -97.28125 C 178.9375 -118.265625 173.828125 -139.015625 164.609375 -158.46875 C 155.640625 -177.65625 140.546875 -204.03125 119.296875 -204.03125 C 63.484375 -204.03125 7.6875 -153.09375 7.6875 -101.890625 C 7.6875 -52.734375 40.953125 -22.53125 88.3125 -22.53125 Z M 27.640625 -82.9375 C 27.640625 -91.390625 26.375 -100.359375 28.671875 -108.03125 C 35.578125 -130.296875 81.15625 -175.609375 118.53125 -175.609375 C 129.03125 -175.609375 139.78125 -167.9375 145.40625 -158.96875 C 153.859375 -145.65625 157.4375 -129.28125 157.4375 -113.65625 C 157.4375 -95.484375 149.765625 -80.125 136.1875 -69.375 C 114.6875 -90.875 97.28125 -110.59375 93.703125 -110.59375 C 88.828125 -110.59375 86.265625 -107.265625 86.265625 -101.375 C 86.265625 -94.46875 100.09375 -77.0625 117.765625 -58.625 C 105.984375 -54.015625 92.15625 -51.453125 76.546875 -51.453125 C 57.09375 -51.453125 27.640625 -63.484375 27.640625 -82.9375 Z M 27.640625 -82.9375 "/>
</symbol>
<symbol overflow="visible" id="glyph0-18">
<path style="stroke:none;" d="M 16.890625 2.296875 C 22.265625 2.296875 25.34375 -2.5625 25.34375 -11.78125 C 25.34375 -59.140625 31.234375 -113.921875 35.078125 -166.40625 C 51.203125 -172.546875 67.078125 -177.15625 83.71875 -177.15625 C 99.078125 -177.15625 125.1875 -173.0625 125.1875 -157.703125 C 125.1875 -138.234375 112.390625 -122.375 96.765625 -122.375 C 79.875 -122.375 79.875 -129.796875 62.71875 -129.796875 C 58.109375 -129.796875 56.3125 -122.109375 56.3125 -117.5 C 56.3125 -103.9375 84.984375 -82.9375 100.09375 -66.5625 C 117.25 -47.609375 143.609375 -11.265625 153.09375 -11.265625 C 159.484375 -11.265625 163.078125 -14.59375 163.078125 -20.734375 C 163.078125 -34.296875 127.484375 -69.375 104.953125 -96.765625 C 130.046875 -100.09375 149.765625 -123.140625 149.765625 -151.046875 C 149.765625 -181.765625 124.671875 -206.84375 94.203125 -206.84375 C 70.65625 -206.84375 46.59375 -200.953125 23.546875 -200.953125 C 17.40625 -200.953125 12.28125 -192.765625 12.28125 -186.625 C 12.28125 -179.203125 14.84375 -171.515625 14.84375 -164.09375 C 14.84375 -113.40625 5.890625 -59.140625 5.125 -11.78125 C 5.125 -2.5625 9.21875 2.296875 16.890625 2.296875 Z M 16.890625 2.296875 "/>
</symbol>
<symbol overflow="visible" id="glyph0-19">
<path style="stroke:none;" d="M 95.484375 -28.15625 C 123.640625 -28.15625 161.28125 -53.5 161.28125 -81.921875 C 161.28125 -93.953125 153.34375 -111.875 139.015625 -111.875 C 117.25 -111.875 55.8125 -123.390625 40.1875 -145.15625 C 54.53125 -165.125 78.34375 -176.890625 105.21875 -176.890625 C 122.375 -176.890625 122.375 -168.453125 139.515625 -168.453125 C 144.890625 -168.453125 147.71875 -171.78125 147.71875 -177.65625 C 147.71875 -196.09375 121.34375 -206.84375 102.90625 -206.84375 C 61.1875 -206.84375 16.390625 -179.453125 16.390625 -149.5 C 16.390625 -108.03125 88.0625 -87.8125 130.8125 -87.8125 C 130.8125 -67.578125 99.84375 -60.15625 81.40625 -60.15625 C 59.140625 -60.15625 37.375 -66.5625 15.609375 -66.5625 C 9.46875 -66.5625 5.125 -60.421875 5.125 -54.78125 C 5.125 -48.125 9.21875 -38.90625 15.609375 -37.625 C 41.46875 -32.25 68.859375 -28.15625 95.484375 -28.15625 Z M 95.484375 -28.15625 "/>
</symbol>
<symbol overflow="visible" id="glyph0-20">
<path style="stroke:none;" d="M 72.953125 1.53125 C 77.3125 1.53125 80.890625 -3.578125 83.203125 -13.0625 C 88.828125 -35.84375 94.203125 -59.140625 94.203125 -97.53125 C 94.203125 -105.21875 93.4375 -124.15625 92.921875 -138.234375 C 102.40625 -136.453125 114.4375 -134.65625 124.671875 -134.65625 L 141.0625 -134.65625 C 144.890625 -132.359375 147.96875 -127.484375 152.578125 -127.484375 C 154.625 -127.484375 159.234375 -129.796875 163.578125 -133.375 L 170.234375 -138.75 C 174.34375 -142.078125 177.15625 -145.65625 177.15625 -147.96875 C 177.15625 -157.4375 169.21875 -171.78125 162.296875 -171.78125 C 152.3125 -171.78125 142.59375 -167.6875 132.609375 -167.6875 C 118.265625 -167.6875 104.1875 -171.78125 89.859375 -171.78125 L 23.046875 -171.78125 C 5.890625 -171.78125 2.5625 -169.21875 2.5625 -165.375 L 2.5625 -156.921875 C 2.5625 -147.453125 16.890625 -138.5 26.375 -138.234375 L 61.953125 -137.46875 C 65.03125 -137.46875 68.09375 -137.984375 71.171875 -139.015625 L 71.171875 -109.0625 C 71.171875 -71.421875 60.15625 -33.53125 60.15625 -18.6875 C 60.15625 -6.65625 65.28125 1.53125 72.953125 1.53125 Z M 72.953125 1.53125 "/>
</symbol>
<symbol overflow="visible" id="glyph0-21">
<path style="stroke:none;" d="M 45.828125 2.046875 C 76.28125 2.046875 99.578125 -16.890625 124.921875 -39.171875 C 125.703125 -1.28125 129.796875 5.890625 142.84375 5.890625 C 162.5625 5.890625 175.609375 0 189.4375 -7.421875 L 180.484375 -25.09375 C 179.203125 -27.390625 177.921875 -31.234375 175.359375 -31.234375 C 172.796875 -31.234375 169.734375 -29.703125 167.421875 -28.671875 C 160 -25.59375 151.8125 -22.265625 144.390625 -20.484375 C 145.40625 -59.640625 153.34375 -96.515625 153.34375 -135.9375 C 153.34375 -144.640625 151.046875 -162.046875 142.34375 -162.046875 C 138.234375 -162.046875 133.890625 -158.71875 133.375 -154.625 C 130.296875 -131.328125 127.234375 -104.1875 125.703125 -78.84375 C 105.46875 -49.40625 78.34375 -26.875 46.34375 -26.875 C 32.25 -26.875 24.578125 -49.15625 24.578125 -63.234375 C 24.578125 -95.484375 31.234375 -127.75 31.234375 -160 C 31.234375 -167.421875 23.8125 -177.15625 16.390625 -177.15625 C 11.015625 -177.15625 11.265625 -167.171875 11.265625 -161.796875 C 11.265625 -139.265625 5.125 -114.171875 5.125 -91.640625 C 5.125 -59.140625 13.3125 2.046875 45.828125 2.046875 Z M 45.828125 2.046875 "/>
</symbol>
<symbol overflow="visible" id="glyph0-22">
<path style="stroke:none;" d="M 77.5625 3.078125 C 90.875 3.078125 108.28125 -25.859375 120.3125 -46.59375 C 131.078125 -65.03125 138.234375 -84.984375 149.25 -104.1875 C 155.90625 -115.71875 170.234375 -132.359375 170.234375 -140.546875 C 170.234375 -149.765625 167.171875 -160.765625 157.953125 -160.765625 C 149.765625 -160.765625 135.6875 -128.765625 125.953125 -111.875 C 111.875 -87.046875 100.859375 -63.484375 80.125 -36.359375 C 77.828125 -33.28125 74.75 -30.71875 71.421875 -28.671875 C 49.40625 -67.578125 32 -112.390625 17.40625 -160 C 16.390625 -163.578125 12.546875 -166.90625 8.953125 -166.90625 C 5.125 -166.90625 1.28125 -161.28125 3.078125 -155.390625 C 10.5 -131.578125 18.171875 -104.703125 28.421875 -79.109375 C 39.9375 -50.171875 60.921875 3.078125 77.5625 3.078125 Z M 77.5625 3.078125 "/>
</symbol>
<symbol overflow="visible" id="glyph0-23">
<path style="stroke:none;" d="M 59.640625 3.078125 C 66.8125 3.078125 77.3125 -18.4375 83.71875 -30.96875 C 91.390625 -47.359375 98.5625 -64.765625 105.21875 -82.171875 C 108.28125 -65.796875 113.15625 -49.40625 120.3125 -34.296875 C 126.46875 -21.5 139.265625 -1.796875 148.984375 -1.796875 C 163.84375 -1.796875 171.515625 -23.546875 178.4375 -35.84375 C 199.171875 -72.703125 218.875 -110.84375 239.109375 -148.984375 C 240.890625 -152.578125 241.65625 -156.671875 241.65625 -160.515625 C 241.65625 -168.703125 237.0625 -181.25 228.859375 -181.25 C 225.28125 -181.25 220.921875 -176.640625 219.390625 -173.3125 C 208.890625 -150.78125 196.859375 -129.53125 184.828125 -107.265625 C 172.796875 -84.734375 160.25 -62.71875 147.71875 -40.453125 C 146.4375 -38.40625 145.15625 -35.328125 143.359375 -35.328125 C 136.453125 -50.6875 126.71875 -64.25 123.390625 -81.15625 C 122.109375 -87.296875 123.390625 -94.203125 121.34375 -102.65625 C 120.0625 -107.78125 117.5 -114.6875 113.40625 -121.34375 C 112.125 -123.390625 109.0625 -124.921875 106.5 -124.921875 C 102.90625 -124.921875 97.796875 -123.390625 96.515625 -120.3125 C 90.109375 -103.171875 81.40625 -87.546875 73.734375 -70.40625 L 62.46875 -46.078125 C 61.703125 -44.546875 60.15625 -42.234375 58.625 -42.234375 C 55.8125 -42.234375 53.765625 -45.828125 53.25 -48.390625 C 49.65625 -66.296875 47.109375 -84.984375 41.46875 -102.40625 C 35.328125 -121.34375 23.296875 -149.5 18.4375 -156.921875 C 16.390625 -160 12.28125 -161.03125 8.953125 -161.03125 C 5.625 -161.03125 2.5625 -156.421875 2.5625 -153.34375 C 2.5625 -146.6875 17.921875 -113.65625 24.0625 -93.4375 C 32.25 -66.296875 36.359375 -37.625 45.5625 -11.015625 C 47.875 -4.609375 52.984375 3.078125 59.640625 3.078125 Z M 59.640625 3.078125 "/>
</symbol>
<symbol overflow="visible" id="glyph0-24">
<path style="stroke:none;" d="M 19.71875 -9.46875 C 23.8125 -9.46875 27.140625 -13.3125 29.703125 -20.484375 C 34.296875 -33.53125 54.78125 -57.59375 73.734375 -75.78125 C 94.46875 -49.15625 115.453125 -23.296875 136.953125 2.296875 C 140.546875 6.40625 145.40625 12.546875 149.25 12.546875 C 154.625 12.546875 159.75 6.140625 159.75 1.03125 C 159.75 -5.125 159.234375 -12.03125 151.046875 -19.96875 C 131.328125 -39.421875 109.3125 -63.484375 88.3125 -88.828125 C 110.34375 -107.265625 136.1875 -122.375 160.25 -135.9375 C 162.5625 -137.21875 166.40625 -139.515625 166.40625 -142.34375 C 166.40625 -151.296875 160.25 -164.09375 151.546875 -164.09375 C 144.390625 -164.09375 121.34375 -148.734375 107.265625 -138.5 C 96 -130.046875 83.453125 -120.3125 71.171875 -109.5625 C 51.203125 -134.40625 33.28125 -159.75 19.71875 -181.765625 C 17.15625 -186.109375 14.84375 -189.1875 11.515625 -189.1875 C 6.90625 -189.1875 2.5625 -184.3125 2.5625 -179.71875 C 2.5625 -172.796875 14.078125 -151.8125 23.046875 -140.28125 C 34.296875 -125.703125 45.828125 -111.109375 57.09375 -96.765625 C 30.96875 -71.9375 9.46875 -45.3125 9.46875 -25.859375 C 9.46875 -15.109375 12.796875 -9.46875 19.71875 -9.46875 Z M 19.71875 -9.46875 "/>
</symbol>
<symbol overflow="visible" id="glyph0-25">
<path style="stroke:none;" d="M 14.84375 2.5625 C 23.8125 2.5625 22.015625 -21.25 31.234375 -34.046875 C 49.65625 -59.640625 69.375 -79.609375 90.375 -97.53125 C 92.921875 -96.25 95.484375 -95.484375 98.296875 -95.484375 C 101.890625 -95.484375 107.78125 -96 107.78125 -99.578125 C 107.78125 -102.90625 106.234375 -105.984375 103.9375 -108.546875 C 126.203125 -126.203125 150.265625 -142.84375 176.640625 -162.5625 C 178.4375 -164.09375 179.203125 -167.171875 179.203125 -169.984375 C 179.203125 -179.203125 168.953125 -188.921875 158.203125 -188.921875 C 149.765625 -188.921875 147.203125 -175.359375 140.546875 -169.984375 C 123.140625 -155.90625 103.171875 -143.875 85.25 -130.046875 C 70.40625 -146.9375 54.265625 -163.328125 38.65625 -179.96875 C 30.203125 -188.671875 21.25 -205.3125 12.546875 -205.3125 C 8.453125 -205.3125 2.5625 -201.21875 2.5625 -196.859375 C 2.5625 -191.75 6.140625 -186.875 9.734375 -183.046875 C 29.703125 -161.03125 48.390625 -137.984375 69.125 -116.484375 C 37.375 -88.578125 2.8125 -52.984375 2.8125 -20.484375 C 2.8125 -11.78125 6.140625 2.5625 14.84375 2.5625 Z M 14.84375 2.5625 "/>
</symbol>
<symbol overflow="visible" id="glyph0-26">
<path style="stroke:none;" d="M 18.171875 3.078125 C 31.234375 3.078125 58.375 -9.21875 84.21875 -9.21875 C 125.703125 -9.21875 176.890625 4.09375 223.234375 4.09375 C 231.171875 4.09375 241.65625 -1.03125 241.65625 -8.953125 C 241.65625 -17.15625 237.0625 -30.96875 230.90625 -30.96875 C 223.484375 -30.96875 217.34375 -24.578125 209.921875 -24.578125 C 176.390625 -24.578125 107.78125 -36.09375 73.734375 -36.09375 C 65.28125 -36.09375 56.0625 -35.578125 47.359375 -34.5625 C 67.078125 -49.15625 83.453125 -63.234375 99.84375 -79.609375 C 129.796875 -109.5625 155.90625 -142.84375 184.0625 -175.109375 C 184.0625 -184.0625 176.640625 -199.421875 168.703125 -199.421875 C 165.375 -199.421875 162.5625 -197.625 160.25 -195.328125 L 24.578125 -185.859375 C 18.171875 -185.34375 14.078125 -180.734375 14.078125 -174.59375 C 14.078125 -168.453125 21.25 -156.671875 29.703125 -157.1875 L 137.734375 -164.859375 C 111.359375 -132.859375 86.265625 -102.65625 57.59375 -73.734375 C 49.40625 -65.28125 36.359375 -61.953125 27.90625 -53.765625 C 17.65625 -43.78125 2.5625 -26.875 2.5625 -18.9375 C 2.5625 -9.984375 9.21875 3.078125 18.171875 3.078125 Z M 18.171875 3.078125 "/>
</symbol>
</g>
</defs>
<g id="surface1">
<rect x="0" y="0" width="1196.03125" height="1552.65625" style="fill:rgb(86.666667%,100%,100%);fill-opacity:1;stroke:none;"/>
<g style="fill:rgb(20%,26.666667%,26.666667%);fill-opacity:1;">
  <use xlink:href="#glyph0-1" x="16" y="236.15625"/>
  <use xlink:href="#glyph0-2" x="209.796875" y="236.15625"/>
  <use xlink:href="#glyph0-3" x="414.59375" y="236.15625"/>
  <use xlink:href="#glyph0-4" x="591.234375" y="236.15625"/>
  <use xlink:href="#glyph0-5" x="796.03125" y="236.15625"/>
  <use xlink:href="#glyph0-6" x="1000.828125" y="236.15625"/>
</g>
<g style="fill:rgb(20%,26.666667%,26.666667%);fill-opacity:1;">
  <use xlink:href="#glyph0-7" x="16" y="543.359375"/>
  <use xlink:href="#glyph0-8" x="320.640625" y="543.359375"/>
  <use xlink:href="#glyph0-9" x="499.84375" y="543.359375"/>
  <use xlink:href="#glyph0-10" x="673.921875" y="543.359375"/>
  <use xlink:href="#glyph0-11" x="940.15625" y="543.359375"/>
</g>
<g style="fill:rgb(20%,26.666667%,26.666667%);fill-opacity:1;">
  <use xlink:href="#glyph0-12" x="16" y="850.5625"/>
  <use xlink:href="#glyph0-13" x="205.4375" y="850.5625"/>
  <use xlink:href="#glyph0-14" x="387.203125" y="850.5625"/>
  <use xlink:href="#glyph0-15" x="563.84375" y="850.5625"/>
  <use xlink:href="#glyph0-16" x="717.4375" y="850.5625"/>
</g>
<g style="fill:rgb(20%,26.666667%,26.666667%);fill-opacity:1;">
  <use xlink:href="#glyph0-17" x="16" y="1157.765625"/>
  <use xlink:href="#glyph0-18" x="211.328125" y="1157.765625"/>
  <use xlink:href="#glyph0-19" x="365.953125" y="1157.765625"/>
  <use xlink:href="#glyph0-20" x="532.359375" y="1157.765625"/>
  <use xlink:href="#glyph0-21" x="712.078125" y="1157.765625"/>
</g>
<g style="fill:rgb(20%,26.666667%,26.666667%);fill-opacity:1;">
  <use xlink:href="#glyph0-22" x="16" y="1464.96875"/>
  <use xlink:href="#glyph0-23" x="188.796875" y="1464.96875"/>
  <use xlink:href="#glyph0-24" x="433.015625" y="1464.96875"/>
  <use xlink:href="#glyph0-25" x="601.96875" y="1464.96875"/>
  <use xlink:href="#glyph0-26" x="783.734375" y="1464.96875"/>
</g>
</g>
</svg>
